[] : TXL0911W - (Warning) Stack limit less than recommended for TXL size (probable cause: shell stack limit)
[] : TXL0913I - (Information) Recursion stack limit reduced from 268435456 to 7340032 to fit
[] : TXL0911W - (Warning) Stack limit less than recommended for TXL size (probable cause: shell stack limit)
[] : TXL0913I - (Information) Recursion stack limit reduced from 268435456 to 7340032 to fit
[] : TXL0911W - (Warning) Stack limit less than recommended for TXL size (probable cause: shell stack limit)
[] : TXL0913I - (Information) Recursion stack limit reduced from 268435456 to 7340032 to fit
[Mytar/Donor/config.c, ifdef.txl] : TXL0592E predefined function [write], called from [replacePreprocessorDefs] - Unable to open output file 'Mytar/Donor/config.cNON'
[] : TXL0911W - (Warning) Stack limit less than recommended for TXL size (probable cause: shell stack limit)
[] : TXL0913I - (Information) Recursion stack limit reduced from 268435456 to 7340032 to fit
[] : TXL0911W - (Warning) Stack limit less than recommended for TXL size (probable cause: shell stack limit)
[] : TXL0913I - (Information) Recursion stack limit reduced from 268435456 to 7340032 to fit
[Mytar/Donor/config.c, ifdef.txl] : TXL0592E predefined function [write], called from [replacePreprocessorDefs] - Unable to open output file 'Mytar/Donor/config.cNON'
[] : TXL0911W - (Warning) Stack limit less than recommended for TXL size (probable cause: shell stack limit)
[] : TXL0913I - (Information) Recursion stack limit reduced from 268435456 to 7340032 to fit
[] : TXL0911W - (Warning) Stack limit less than recommended for TXL size (probable cause: shell stack limit)
[] : TXL0913I - (Information) Recursion stack limit reduced from 268435456 to 7340032 to fit
[Mytar/Donor/config.c, ifdef.txl] : TXL0592E predefined function [write], called from [replacePreprocessorDefs] - Unable to open output file 'Mytar/Donor/config.cNON'
[] : TXL0911W - (Warning) Stack limit less than recommended for TXL size (probable cause: shell stack limit)
[] : TXL0913I - (Information) Recursion stack limit reduced from 268435456 to 7340032 to fit
[Mytar/Donor/io.c, ifdef.txl] : TXL0592E predefined function [write], called from [replacePreprocessorDefs] - Unable to open output file 'Mytar/Donor/io.cNON'
[] : TXL0911W - (Warning) Stack limit less than recommended for TXL size (probable cause: shell stack limit)
[] : TXL0913I - (Information) Recursion stack limit reduced from 268435456 to 7340032 to fit
[Mytar/Donor/header.c, ifdef.txl] : TXL0592E predefined function [write], called from [replacePreprocessorDefs] - Unable to open output file 'Mytar/Donor/header.cNON'
[] : TXL0911W - (Warning) Stack limit less than recommended for TXL size (probable cause: shell stack limit)
[] : TXL0913I - (Information) Recursion stack limit reduced from 268435456 to 7340032 to fit
[Mytar/Donor/append.c, ifdef.txl] : TXL0592E predefined function [write], called from [replacePreprocessorDefs] - Unable to open output file 'Mytar/Donor/append.cNON'
[] : TXL0911W - (Warning) Stack limit less than recommended for TXL size (probable cause: shell stack limit)
[] : TXL0913I - (Information) Recursion stack limit reduced from 268435456 to 7340032 to fit
[Mytar/Donor/config.c, ifdef.txl] : TXL0592E predefined function [write], called from [replacePreprocessorDefs] - Unable to open output file 'Mytar/Donor/config.cNON'
[] : TXL0911W - (Warning) Stack limit less than recommended for TXL size (probable cause: shell stack limit)
[] : TXL0913I - (Information) Recursion stack limit reduced from 268435456 to 7340032 to fit
[Mytar/Donor/config.c, ifdef.txl] : TXL0592E predefined function [write], called from [replacePreprocessorDefs] - Unable to open output file 'Mytar/Donor/config.cNON'
[] : TXL0911W - (Warning) Stack limit less than recommended for TXL size (probable cause: shell stack limit)
[] : TXL0913I - (Information) Recursion stack limit reduced from 268435456 to 7340032 to fit
[Mytar/Donor/io.c, ifdef.txl] : TXL0592E predefined function [write], called from [replacePreprocessorDefs] - Unable to open output file 'Mytar/Donor/io.cNON'
[] : TXL0911W - (Warning) Stack limit less than recommended for TXL size (probable cause: shell stack limit)
[] : TXL0913I - (Information) Recursion stack limit reduced from 268435456 to 7340032 to fit
[Mytar/Donor/io.c, ifdef.txl] : TXL0592E predefined function [write], called from [replacePreprocessorDefs] - Unable to open output file 'Mytar/Donor/io.cNON'
[] : TXL0911W - (Warning) Stack limit less than recommended for TXL size (probable cause: shell stack limit)
[] : TXL0913I - (Information) Recursion stack limit reduced from 268435456 to 7340032 to fit
[Mytar/Donor/header.c, ifdef.txl] : TXL0592E predefined function [write], called from [replacePreprocessorDefs] - Unable to open output file 'Mytar/Donor/header.cNON'
[] : TXL0911W - (Warning) Stack limit less than recommended for TXL size (probable cause: shell stack limit)
[] : TXL0913I - (Information) Recursion stack limit reduced from 268435456 to 7340032 to fit
[Mytar/Donor/header.c, ifdef.txl] : TXL0592E predefined function [write], called from [replacePreprocessorDefs] - Unable to open output file 'Mytar/Donor/header.cNON'
[] : TXL0911W - (Warning) Stack limit less than recommended for TXL size (probable cause: shell stack limit)
[] : TXL0913I - (Information) Recursion stack limit reduced from 268435456 to 7340032 to fit
[Mytar/Donor/append.c, ifdef.txl] : TXL0592E predefined function [write], called from [replacePreprocessorDefs] - Unable to open output file 'Mytar/Donor/append.cNON'
[] : TXL0911W - (Warning) Stack limit less than recommended for TXL size (probable cause: shell stack limit)
[] : TXL0913I - (Information) Recursion stack limit reduced from 268435456 to 7340032 to fit
[Mytar/Donor/append.c, ifdef.txl] : TXL0592E predefined function [write], called from [replacePreprocessorDefs] - Unable to open output file 'Mytar/Donor/append.cNON'
[] : TXL0911W - (Warning) Stack limit less than recommended for TXL size (probable cause: shell stack limit)
[] : TXL0913I - (Information) Recursion stack limit reduced from 268435456 to 7340032 to fit
[Mytar/Donor/header.c, ifdef.txl] : TXL0592E predefined function [write], called from [replacePreprocessorDefs] - Unable to open output file 'Mytar/Donor/header.cNON'
[] : TXL0911W - (Warning) Stack limit less than recommended for TXL size (probable cause: shell stack limit)
[] : TXL0913I - (Information) Recursion stack limit reduced from 268435456 to 7340032 to fit
[Mytar/Donor/header.c, ifdef.txl] : TXL0592E predefined function [write], called from [replacePreprocessorDefs] - Unable to open output file 'Mytar/Donor/header.cNON'
[] : TXL0911W - (Warning) Stack limit less than recommended for TXL size (probable cause: shell stack limit)
[] : TXL0913I - (Information) Recursion stack limit reduced from 268435456 to 7340032 to fit
[Mytar/Donor/config.c, ifdef.txl] : TXL0592E predefined function [write], called from [replacePreprocessorDefs] - Unable to open output file 'Mytar/Donor/config.cNON'
[] : TXL0911W - (Warning) Stack limit less than recommended for TXL size (probable cause: shell stack limit)
[] : TXL0913I - (Information) Recursion stack limit reduced from 268435456 to 7340032 to fit
[Mytar/Donor/io.c, ifdef.txl] : TXL0592E predefined function [write], called from [replacePreprocessorDefs] - Unable to open output file 'Mytar/Donor/io.cNON'
[] : TXL0911W - (Warning) Stack limit less than recommended for TXL size (probable cause: shell stack limit)
[] : TXL0913I - (Information) Recursion stack limit reduced from 268435456 to 7340032 to fit
[Mytar/Donor/io.c, ifdef.txl] : TXL0592E predefined function [write], called from [replacePreprocessorDefs] - Unable to open output file 'Mytar/Donor/io.cNON'
[] : TXL0911W - (Warning) Stack limit less than recommended for TXL size (probable cause: shell stack limit)
[] : TXL0913I - (Information) Recursion stack limit reduced from 268435456 to 7340032 to fit
[] : TXL0911W - (Warning) Stack limit less than recommended for TXL size (probable cause: shell stack limit)
[] : TXL0913I - (Information) Recursion stack limit reduced from 268435456 to 7340032 to fit
[Mytar/Donor/config.c, ifdef.txl] : TXL0592E predefined function [write], called from [replacePreprocessorDefs] - Unable to open output file 'Mytar/Donor/config.cNON'
[] : TXL0911W - (Warning) Stack limit less than recommended for TXL size (probable cause: shell stack limit)
[] : TXL0913I - (Information) Recursion stack limit reduced from 268435456 to 7340032 to fit
[Mytar/Donor/io.c, ifdef.txl] : TXL0592E predefined function [write], called from [replacePreprocessorDefs] - Unable to open output file 'Mytar/Donor/io.cNON'
[] : TXL0911W - (Warning) Stack limit less than recommended for TXL size (probable cause: shell stack limit)
[] : TXL0913I - (Information) Recursion stack limit reduced from 268435456 to 7340032 to fit
[Mytar/Donor/header.c, ifdef.txl] : TXL0592E predefined function [write], called from [replacePreprocessorDefs] - Unable to open output file 'Mytar/Donor/header.cNON'
[] : TXL0911W - (Warning) Stack limit less than recommended for TXL size (probable cause: shell stack limit)
[] : TXL0913I - (Information) Recursion stack limit reduced from 268435456 to 7340032 to fit
[Mytar/Donor/append.c, ifdef.txl] : TXL0592E predefined function [write], called from [replacePreprocessorDefs] - Unable to open output file 'Mytar/Donor/append.cNON'
[] : TXL0911W - (Warning) Stack limit less than recommended for TXL size (probable cause: shell stack limit)
[] : TXL0913I - (Information) Recursion stack limit reduced from 268435456 to 7340032 to fit
[Mytar/Donor/io.c, ifdef.txl] : TXL0592E predefined function [write], called from [replacePreprocessorDefs] - Unable to open output file 'Mytar/Donor/io.cNON'
[] : TXL0911W - (Warning) Stack limit less than recommended for TXL size (probable cause: shell stack limit)
[] : TXL0913I - (Information) Recursion stack limit reduced from 268435456 to 7340032 to fit
[Mytar/Donor/header.c, ifdef.txl] : TXL0592E predefined function [write], called from [replacePreprocessorDefs] - Unable to open output file 'Mytar/Donor/header.cNON'
[] : TXL0911W - (Warning) Stack limit less than recommended for TXL size (probable cause: shell stack limit)
[] : TXL0913I - (Information) Recursion stack limit reduced from 268435456 to 7340032 to fit
[Mytar/Donor/header.c, ifdef.txl] : TXL0592E predefined function [write], called from [replacePreprocessorDefs] - Unable to open output file 'Mytar/Donor/header.cNON'
[] : TXL0911W - (Warning) Stack limit less than recommended for TXL size (probable cause: shell stack limit)
[] : TXL0913I - (Information) Recursion stack limit reduced from 268435456 to 7340032 to fit
[] : TXL0911W - (Warning) Stack limit less than recommended for TXL size (probable cause: shell stack limit)
[] : TXL0913I - (Information) Recursion stack limit reduced from 268435456 to 7340032 to fit
[Mytar/Donor/config.c, ifdef.txl] : TXL0592E predefined function [write], called from [replacePreprocessorDefs] - Unable to open output file 'Mytar/Donor/config.cNON'
[] : TXL0911W - (Warning) Stack limit less than recommended for TXL size (probable cause: shell stack limit)
[] : TXL0913I - (Information) Recursion stack limit reduced from 268435456 to 7340032 to fit
[Mytar/Donor/io.c, ifdef.txl] : TXL0592E predefined function [write], called from [replacePreprocessorDefs] - Unable to open output file 'Mytar/Donor/io.cNON'
[] : TXL0911W - (Warning) Stack limit less than recommended for TXL size (probable cause: shell stack limit)
[] : TXL0913I - (Information) Recursion stack limit reduced from 268435456 to 7340032 to fit
[Mytar/Donor/header.c, ifdef.txl] : TXL0592E predefined function [write], called from [replacePreprocessorDefs] - Unable to open output file 'Mytar/Donor/header.cNON'
[] : TXL0911W - (Warning) Stack limit less than recommended for TXL size (probable cause: shell stack limit)
[] : TXL0913I - (Information) Recursion stack limit reduced from 268435456 to 7340032 to fit
[Mytar/Donor/append.c, ifdef.txl] : TXL0592E predefined function [write], called from [replacePreprocessorDefs] - Unable to open output file 'Mytar/Donor/append.cNON'
[] : TXL0911W - (Warning) Stack limit less than recommended for TXL size (probable cause: shell stack limit)
[] : TXL0913I - (Information) Recursion stack limit reduced from 268435456 to 7340032 to fit
[Mytar/Donor/header.c, ifdef.txl] : TXL0592E predefined function [write], called from [replacePreprocessorDefs] - Unable to open output file 'Mytar/Donor/header.cNON'
[] : TXL0911W - (Warning) Stack limit less than recommended for TXL size (probable cause: shell stack limit)
[] : TXL0913I - (Information) Recursion stack limit reduced from 268435456 to 7340032 to fit
[Mytar/Donor/append.c, ifdef.txl] : TXL0592E predefined function [write], called from [replacePreprocessorDefs] - Unable to open output file 'Mytar/Donor/append.cNON'
[] : TXL0911W - (Warning) Stack limit less than recommended for TXL size (probable cause: shell stack limit)
[] : TXL0913I - (Information) Recursion stack limit reduced from 268435456 to 7340032 to fit
[Mytar/Donor/append.c, ifdef.txl] : TXL0592E predefined function [write], called from [replacePreprocessorDefs] - Unable to open output file 'Mytar/Donor/append.cNON'
[] : TXL0911W - (Warning) Stack limit less than recommended for TXL size (probable cause: shell stack limit)
[] : TXL0913I - (Information) Recursion stack limit reduced from 268435456 to 7340032 to fit
[] : TXL0911W - (Warning) Stack limit less than recommended for TXL size (probable cause: shell stack limit)
[] : TXL0913I - (Information) Recursion stack limit reduced from 268435456 to 7340032 to fit
[Mytar/Donor/config.c, ifdef.txl] : TXL0592E predefined function [write], called from [replacePreprocessorDefs] - Unable to open output file 'Mytar/Donor/config.cNON'
[] : TXL0911W - (Warning) Stack limit less than recommended for TXL size (probable cause: shell stack limit)
[] : TXL0913I - (Information) Recursion stack limit reduced from 268435456 to 7340032 to fit
[Mytar/Donor/io.c, ifdef.txl] : TXL0592E predefined function [write], called from [replacePreprocessorDefs] - Unable to open output file 'Mytar/Donor/io.cNON'
[] : TXL0911W - (Warning) Stack limit less than recommended for TXL size (probable cause: shell stack limit)
[] : TXL0913I - (Information) Recursion stack limit reduced from 268435456 to 7340032 to fit
[Mytar/Donor/header.c, ifdef.txl] : TXL0592E predefined function [write], called from [replacePreprocessorDefs] - Unable to open output file 'Mytar/Donor/header.cNON'
[] : TXL0911W - (Warning) Stack limit less than recommended for TXL size (probable cause: shell stack limit)
[] : TXL0913I - (Information) Recursion stack limit reduced from 268435456 to 7340032 to fit
[Mytar/Donor/append.c, ifdef.txl] : TXL0592E predefined function [write], called from [replacePreprocessorDefs] - Unable to open output file 'Mytar/Donor/append.cNON'
[] : TXL0911W - (Warning) Stack limit less than recommended for TXL size (probable cause: shell stack limit)
[] : TXL0913I - (Information) Recursion stack limit reduced from 268435456 to 7340032 to fit
[Mytar/Donor/append.c, ifdef.txl] : TXL0592E predefined function [write], called from [replacePreprocessorDefs] - Unable to open output file 'Mytar/Donor/append.cNON'
[] : TXL0911W - (Warning) Stack limit less than recommended for TXL size (probable cause: shell stack limit)
[] : TXL0913I - (Information) Recursion stack limit reduced from 268435456 to 7340032 to fit
[Mytar/Donor/append.c, ifdef.txl] : TXL0592E predefined function [write], called from [replacePreprocessorDefs] - Unable to open output file 'Mytar/Donor/append.cNON'
[] : TXL0911W - (Warning) Stack limit less than recommended for TXL size (probable cause: shell stack limit)
[] : TXL0913I - (Information) Recursion stack limit reduced from 268435456 to 7340032 to fit
[Mytar/Donor/append.c, ifdef.txl] : TXL0592E predefined function [write], called from [replacePreprocessorDefs] - Unable to open output file 'Mytar/Donor/append.cNON'
[] : TXL0911W - (Warning) Stack limit less than recommended for TXL size (probable cause: shell stack limit)
[] : TXL0913I - (Information) Recursion stack limit reduced from 268435456 to 7340032 to fit
[] : TXL0911W - (Warning) Stack limit less than recommended for TXL size (probable cause: shell stack limit)
[] : TXL0913I - (Information) Recursion stack limit reduced from 268435456 to 7340032 to fit
[Mytar/Donor/config.c, ifdef.txl] : TXL0592E predefined function [write], called from [replacePreprocessorDefs] - Unable to open output file 'Mytar/Donor/config.cNON'
[] : TXL0911W - (Warning) Stack limit less than recommended for TXL size (probable cause: shell stack limit)
[] : TXL0913I - (Information) Recursion stack limit reduced from 268435456 to 7340032 to fit
[Mytar/Donor/io.c, ifdef.txl] : TXL0592E predefined function [write], called from [replacePreprocessorDefs] - Unable to open output file 'Mytar/Donor/io.cNON'
[] : TXL0911W - (Warning) Stack limit less than recommended for TXL size (probable cause: shell stack limit)
[] : TXL0913I - (Information) Recursion stack limit reduced from 268435456 to 7340032 to fit
[Mytar/Donor/header.c, ifdef.txl] : TXL0592E predefined function [write], called from [replacePreprocessorDefs] - Unable to open output file 'Mytar/Donor/header.cNON'
[] : TXL0911W - (Warning) Stack limit less than recommended for TXL size (probable cause: shell stack limit)
[] : TXL0913I - (Information) Recursion stack limit reduced from 268435456 to 7340032 to fit
[Mytar/Donor/append.c, ifdef.txl] : TXL0592E predefined function [write], called from [replacePreprocessorDefs] - Unable to open output file 'Mytar/Donor/append.cNON'
